two-proportion z-test
…
In this section, we want to know: for two different groups, is there a difference in the proportion for another variable.

Lets consider a case: An experiment is run where people are basically asked how are things going in your life this year?, but wording is slightly different: 1) Are you having a good year? 2) Are you having a bad year?. Their responses are classified as positive or negative.

Lets answer the question: Is there evidence that there is an association (relationship) between the way the question is asked and how people respond

read_csv(file = "https://raw.githubusercontent.com/EvaMaeRey/teaching_spring_2021/master/data/chap5.GoodandBad.csv") %>% 
  rename(wording = Wording) %>% # getting to "snake case" all lower w/ underscores
  rename(perception = Perception) ->
good_bad

good_bad

## # A tibble: 30 x 2
##    wording  perception
##    <chr>    <chr>     
##  1 goodyear positive  
##  2 goodyear negative  
##  3 badyear  positive  
##  4 goodyear positive  
##  5 goodyear negative  
##  6 badyear  positive  
##  7 goodyear positive  
##  8 goodyear positive  
##  9 goodyear positive  
## 10 badyear  negative  
## #  with 20 more rows
…
