Practice time
…
# read in data (posted online) of time estimates for time-laps when a 10 second clip is played
read_csv(file = "https://raw.githubusercontent.com/EvaMaeRey/teaching_spring_2021/master/data/chap2.ElapsedTime.csv") %>% 
  rename(time = Time) -> # rename Time as time - this is snake case a coding style that I prefer
  jackson_five

## Parsed with column specification:
## cols(
##   Time = col_double()
## )

# you've read in the data and created the object:
jackson_five

## # A tibble: 48 x 1
##     time
##    <dbl>
##  1     5
##  2     6
##  3     7
##  4     7
##  5     7
##  6     8
##  7     8
##  8     8
##  9     8
## 10     8
## #  with 38 more rows
…
