ma206_lesson_16.utf8
…
---

count: false

.panel1-histversion-auto[

```r
*BreastFeedIntell
```
]
 
.panel2-histversion-auto[

```
# A tibble: 322 x 2
   Feeding     GCI
   <chr>     <dbl>
 1 Breastfed 127. 
 2 Breastfed 125. 
 3 Breastfed  99.8
 4 Breastfed 105. 
 5 Breastfed  97.3
 6 Breastfed 131. 
 7 Breastfed  98.5
 8 Breastfed 102. 
 9 Breastfed 105. 
10 Breastfed 116. 
# … with 312 more rows
```
…
---
count: false

.panel1-smaller_sample-auto[

```r
set.seed(873849)
*BreastFeedIntell
```
]
 
.panel2-smaller_sample-auto[

```
# A tibble: 322 x 2
   Feeding     GCI
   <chr>     <dbl>
 1 Breastfed 127. 
 2 Breastfed 125. 
 3 Breastfed  99.8
 4 Breastfed 105. 
 5 Breastfed  97.3
 6 Breastfed 131. 
 7 Breastfed  98.5
 8 Breastfed 102. 
 9 Breastfed 105. 
10 Breastfed 116. 
# … with 312 more rows
```
…
.panel1-smaller_sample-auto[

```r
set.seed(873849)
BreastFeedIntell %>%
* sample_n(30)
```
]
 
.panel2-smaller_sample-auto[

```
# A tibble: 30 x 2
   Feeding        GCI
   <chr>        <dbl>
 1 Breastfed     98.2
 2 NotBreastfed  90.1
 3 Breastfed     99.3
 4 Breastfed    109. 
 5 NotBreastfed  88.5
 6 Breastfed     91.6
 7 Breastfed     97.4
 8 Breastfed    107. 
 9 NotBreastfed  91.1
10 NotBreastfed  63.4
# … with 20 more rows
```
…
