ma206_lesson_07.utf8
…
## What's pnorm()
.panel1-dnorm_pnorm-auto[

```r
((-100:100)/20) %>%
* tibble(sd = .)
```
]
 
.panel2-dnorm_pnorm-auto[

```
# A tibble: 201 x 1
      sd
   <dbl>
 1 -5   
 2 -4.95
 3 -4.9 
 4 -4.85
 5 -4.8 
 6 -4.75
 7 -4.7 
 8 -4.65
 9 -4.6 
10 -4.55
# … with 191 more rows
```
…
## What's pnorm()
.panel1-dnorm_pnorm-auto[

```r
((-100:100)/20) %>%
  tibble(sd = .) %>%
* mutate(prob_from_normal =
*          dnorm(sd))
```
]
 
.panel2-dnorm_pnorm-auto[

```
# A tibble: 201 x 2
      sd prob_from_normal
   <dbl>            <dbl>
 1 -5          0.00000149
 2 -4.95       0.00000191
 3 -4.9        0.00000244
 4 -4.85       0.00000311
 5 -4.8        0.00000396
 6 -4.75       0.00000503
 7 -4.7        0.00000637
 8 -4.65       0.00000805
 9 -4.6        0.0000101 
10 -4.55       0.0000127 
# … with 191 more rows
```
…
```r
((-100:100)/20) %>%
  tibble(sd = .) %>%
  mutate(prob_from_normal =
           dnorm(sd)) %>%
* mutate(cummulative_from_normal =
*          pnorm(sd))
```
]
 
.panel2-dnorm_pnorm-auto[

```
# A tibble: 201 x 3
      sd prob_from_normal cummulative_from_normal
   <dbl>            <dbl>                   <dbl>
 1 -5          0.00000149             0.000000287
 2 -4.95       0.00000191             0.000000371
 3 -4.9        0.00000244             0.000000479
 4 -4.85       0.00000311             0.000000617
 5 -4.8        0.00000396             0.000000793
 6 -4.75       0.00000503             0.00000102 
 7 -4.7        0.00000637             0.00000130 
 8 -4.65       0.00000805             0.00000166 
 9 -4.6        0.0000101              0.00000211 
10 -4.55       0.0000127              0.00000268 
# … with 191 more rows
```
…
